<svg id="User_Menu" data-name="User Menu" xmlns="http://www.w3.org/2000/svg" width="193.171" height="193.171" viewBox="0 0 193.171 193.171">
  <g id="Grupo_88" data-name="Grupo 88">
    <path id="Trazado_2378" data-name="Trazado 2378" d="M96.586,0A96.586,96.586,0,1,1,0,96.586,96.586,96.586,0,0,1,96.586,0Z" fill="#002247"/>
    <circle id="Elipse_10" data-name="Elipse 10" cx="31.101" cy="31.101" r="31.101" transform="translate(65.485 27.302)" fill="#fff"/>
    <path id="Trazado_666" data-name="Trazado 666" d="M72.189,109.093a76.97,76.97,0,0,0,58.091-26.638C124.846,54.133,100.5,33.7,72.19,33.7S19.542,54.139,14.11,82.461a76.961,76.961,0,0,0,58.079,26.632Z" transform="translate(24.397 65.631)" fill="#fff"/>
  </g>
</svg>
